{"count":746,"next":"https://pokeapi.co/api/v2/move?offset=20&limit=20","previous":null,"results":[{"name":"pound","url":"https://pokeapi.co/api/v2/move/1/"},{"name":"karate-chop","url":"https://pokeapi.co/api/v2/move/2/"},{"name":"double-slap","url":"https://pokeapi.co/api/v2/move/3/"},{"name":"comet-punch","url":"https://pokeapi.co/api/v2/move/4/"},{"name":"mega-punch","url":"https://pokeapi.co/api/v2/move/5/"},{"name":"pay-day","url":"https://pokeapi.co/api/v2/move/6/"},{"name":"fire-punch","url":"https://pokeapi.co/api/v2/move/7/"},{"name":"ice-punch","url":"https://pokeapi.co/api/v2/move/8/"},{"name":"thunder-punch","url":"https://pokeapi.co/api/v2/move/9/"},{"name":"scratch","url":"https://pokeapi.co/api/v2/move/10/"},{"name":"vice-grip","url":"https://pokeapi.co/api/v2/move/11/"},{"name":"guillotine","url":"https://pokeapi.co/api/v2/move/12/"},{"name":"razor-wind","url":"https://pokeapi.co/api/v2/move/13/"},{"name":"swords-dance","url":"https://pokeapi.co/api/v2/move/14/"},{"name":"cut","url":"https://pokeapi.co/api/v2/move/15/"},{"name":"gust","url":"https://pokeapi.co/api/v2/move/16/"},{"name":"wing-attack","url":"https://pokeapi.co/api/v2/move/17/"},{"name":"whirlwind","url":"https://pokeapi.co/api/v2/move/18/"},{"name":"fly","url":"https://pokeapi.co/api/v2/move/19/"},{"name":"bind","url":"https://pokeapi.co/api/v2/move/20/"}]}